<?xml version="1.0" encoding="UTF-8"?>
<svg xmlns="http://www.w3.org/2000/svg" xmlns:xlink="http://www.w3.org/1999/xlink" width="142.131pt" height="159.139pt" viewBox="0 0 142.131 159.139" version="1.1">
<defs>
<clipPath id="clip1">
  <path d="M 51 124 L 91 124 L 91 159.140625 L 51 159.140625 Z M 51 124 "/>
</clipPath>
<clipPath id="clip2">
  <path d="M 107 124 L 142.132812 124 L 142.132812 159.140625 L 107 159.140625 Z M 107 124 "/>
</clipPath>
<clipPath id="clip3">
  <path d="M 54 127 L 89 127 L 89 159.140625 L 54 159.140625 Z M 54 127 "/>
</clipPath>
<clipPath id="clip4">
  <path d="M 110 127 L 142.132812 127 L 142.132812 159.140625 L 110 159.140625 Z M 110 127 "/>
</clipPath>
<clipPath id="clip5">
  <path d="M 127 144 L 142.132812 144 L 142.132812 145 L 127 145 Z M 127 144 "/>
</clipPath>
<clipPath id="clip6">
  <path d="M 58 139 L 77 139 L 77 159.140625 L 58 159.140625 Z M 58 139 "/>
</clipPath>
<clipPath id="clip7">
  <path d="M 29 139 L 134 139 L 134 159.140625 L 29 159.140625 Z M 29 139 "/>
</clipPath>
<clipPath id="clip8">
  <path d="M 70 144 L 72 144 L 72 159.140625 L 70 159.140625 Z M 70 144 "/>
</clipPath>
<clipPath id="clip9">
  <path d="M 65 139 L 134 139 L 134 159.140625 L 65 159.140625 Z M 65 139 "/>
</clipPath>
<clipPath id="clip10">
  <path d="M 65 139 L 84 139 L 84 159.140625 L 65 159.140625 Z M 65 139 "/>
</clipPath>
<clipPath id="clip11">
  <path d="M 100 139 L 134 139 L 134 159.140625 L 100 159.140625 Z M 100 139 "/>
</clipPath>
<clipPath id="clip12">
  <path d="M 127 144 L 142.132812 144 L 142.132812 145 L 127 145 Z M 127 144 "/>
</clipPath>
</defs>
<g id="surface1">
<path style="fill-rule:nonzero;fill:rgb(50%,50%,50%);fill-opacity:1;stroke-width:0.3985;stroke-linecap:butt;stroke-linejoin:miter;stroke:rgb(0%,0%,0%);stroke-opacity:1;stroke-miterlimit:10;" d="M 0.00140625 0.001375 L 0.00140625 28.345125 L 56.692813 28.345125 L 56.692813 0.001375 Z M 0.00140625 0.001375 " transform="matrix(1,0,0,-1,71.065,144.767)"/>
<path style=" stroke:none;fill-rule:nonzero;fill:rgb(0%,0%,0%);fill-opacity:1;" d="M 85.238281 144.765625 C 85.238281 136.9375 78.894531 130.59375 71.066406 130.59375 C 63.238281 130.59375 56.890625 136.9375 56.890625 144.765625 C 56.890625 152.59375 63.238281 158.941406 71.066406 158.941406 C 78.894531 158.941406 85.238281 152.59375 85.238281 144.765625 Z M 85.238281 144.765625 "/>
<g clip-path="url(#clip1)" clip-rule="nonzero">
<path style="fill:none;stroke-width:0.3985;stroke-linecap:butt;stroke-linejoin:miter;stroke:rgb(0%,0%,0%);stroke-opacity:1;stroke-miterlimit:10;" d="M 14.173281 0.001375 C 14.173281 7.8295 7.829531 14.17325 0.00140625 14.17325 C -7.826719 14.17325 -14.174375 7.8295 -14.174375 0.001375 C -14.174375 -7.82675 -7.826719 -14.174406 0.00140625 -14.174406 C 7.829531 -14.174406 14.173281 -7.82675 14.173281 0.001375 Z M 14.173281 0.001375 " transform="matrix(1,0,0,-1,71.065,144.767)"/>
</g>
<path style=" stroke:none;fill-rule:nonzero;fill:rgb(0%,0%,0%);fill-opacity:1;" d="M 141.933594 144.765625 C 141.933594 136.9375 135.585938 130.59375 127.757812 130.59375 C 119.929688 130.59375 113.585938 136.9375 113.585938 144.765625 C 113.585938 152.59375 119.929688 158.941406 127.757812 158.941406 C 135.585938 158.941406 141.933594 152.59375 141.933594 144.765625 Z M 141.933594 144.765625 "/>
<g clip-path="url(#clip2)" clip-rule="nonzero">
<path style="fill:none;stroke-width:0.3985;stroke-linecap:butt;stroke-linejoin:miter;stroke:rgb(0%,0%,0%);stroke-opacity:1;stroke-miterlimit:10;" d="M 70.868594 0.001375 C 70.868594 7.8295 64.520938 14.17325 56.692813 14.17325 C 48.864688 14.17325 42.520938 7.8295 42.520938 0.001375 C 42.520938 -7.82675 48.864688 -14.174406 56.692813 -14.174406 C 64.520938 -14.174406 70.868594 -7.82675 70.868594 0.001375 Z M 70.868594 0.001375 " transform="matrix(1,0,0,-1,71.065,144.767)"/>
</g>
<path style=" stroke:none;fill-rule:nonzero;fill:rgb(89.99939%,89.99939%,89.99939%);fill-opacity:1;" d="M 82.402344 144.765625 C 82.402344 138.503906 77.328125 133.429688 71.066406 133.429688 C 64.804688 133.429688 59.726562 138.503906 59.726562 144.765625 C 59.726562 151.027344 64.804688 156.105469 71.066406 156.105469 C 77.328125 156.105469 82.402344 151.027344 82.402344 144.765625 Z M 82.402344 144.765625 "/>
<g clip-path="url(#clip3)" clip-rule="nonzero">
<path style="fill:none;stroke-width:0.3985;stroke-linecap:butt;stroke-linejoin:miter;stroke:rgb(0%,0%,0%);stroke-opacity:1;stroke-miterlimit:10;" d="M 11.337344 0.001375 C 11.337344 6.263094 6.263125 11.337312 0.00140625 11.337312 C -6.260312 11.337312 -11.338437 6.263094 -11.338437 0.001375 C -11.338437 -6.260344 -6.260312 -11.338469 0.00140625 -11.338469 C 6.263125 -11.338469 11.337344 -6.260344 11.337344 0.001375 Z M 11.337344 0.001375 " transform="matrix(1,0,0,-1,71.065,144.767)"/>
</g>
<path style=" stroke:none;fill-rule:nonzero;fill:rgb(89.99939%,89.99939%,89.99939%);fill-opacity:1;" d="M 139.097656 144.765625 C 139.097656 138.503906 134.019531 133.429688 127.757812 133.429688 C 121.496094 133.429688 116.421875 138.503906 116.421875 144.765625 C 116.421875 151.027344 121.496094 156.105469 127.757812 156.105469 C 134.019531 156.105469 139.097656 151.027344 139.097656 144.765625 Z M 139.097656 144.765625 "/>
<g clip-path="url(#clip4)" clip-rule="nonzero">
<path style="fill:none;stroke-width:0.3985;stroke-linecap:butt;stroke-linejoin:miter;stroke:rgb(0%,0%,0%);stroke-opacity:1;stroke-miterlimit:10;" d="M 68.032656 0.001375 C 68.032656 6.263094 62.954531 11.337312 56.692813 11.337312 C 50.431094 11.337312 45.356875 6.263094 45.356875 0.001375 C 45.356875 -6.260344 50.431094 -11.338469 56.692813 -11.338469 C 62.954531 -11.338469 68.032656 -6.260344 68.032656 0.001375 Z M 68.032656 0.001375 " transform="matrix(1,0,0,-1,71.065,144.767)"/>
</g>
<path style="fill:none;stroke-width:0.3985;stroke-linecap:butt;stroke-linejoin:miter;stroke:rgb(0%,0%,0%);stroke-opacity:1;stroke-miterlimit:10;" d="M 0.00140625 0.001375 L 14.173281 0.001375 " transform="matrix(1,0,0,-1,71.065,144.767)"/>
<g clip-path="url(#clip5)" clip-rule="nonzero">
<path style="fill:none;stroke-width:0.3985;stroke-linecap:butt;stroke-linejoin:miter;stroke:rgb(0%,0%,0%);stroke-opacity:1;stroke-miterlimit:10;" d="M 56.692813 0.001375 L 70.868594 0.001375 " transform="matrix(1,0,0,-1,71.065,144.767)"/>
</g>
<path style="fill:none;stroke-width:0.3985;stroke-linecap:butt;stroke-linejoin:miter;stroke:rgb(0%,0%,0%);stroke-opacity:1;stroke-miterlimit:10;" d="M 0.00140625 0.001375 L 12.274844 7.087312 " transform="matrix(1,0,0,-1,71.065,144.767)"/>
<path style="fill:none;stroke-width:0.3985;stroke-linecap:butt;stroke-linejoin:miter;stroke:rgb(0%,0%,0%);stroke-opacity:1;stroke-miterlimit:10;" d="M 56.692813 0.001375 L 61.3725 7.087312 " transform="matrix(1,0,0,-1,71.065,144.767)"/>
<path style="fill:none;stroke-width:0.3985;stroke-linecap:butt;stroke-linejoin:miter;stroke:rgb(0%,0%,0%);stroke-opacity:1;stroke-miterlimit:10;" d="M 0.00140625 0.001375 L 7.087344 12.274812 " transform="matrix(1,0,0,-1,71.065,144.767)"/>
<path style="fill:none;stroke-width:0.3985;stroke-linecap:butt;stroke-linejoin:miter;stroke:rgb(0%,0%,0%);stroke-opacity:1;stroke-miterlimit:10;" d="M 56.692813 0.001375 L 35.435 12.274812 " transform="matrix(1,0,0,-1,71.065,144.767)"/>
<path style="fill:none;stroke-width:0.3985;stroke-linecap:butt;stroke-linejoin:miter;stroke:rgb(0%,0%,0%);stroke-opacity:1;stroke-miterlimit:10;" d="M 0.00140625 0.001375 L 0.00140625 14.17325 " transform="matrix(1,0,0,-1,71.065,144.767)"/>
<path style="fill:none;stroke-width:0.3985;stroke-linecap:butt;stroke-linejoin:miter;stroke:rgb(0%,0%,0%);stroke-opacity:1;stroke-miterlimit:10;" d="M 56.692813 0.001375 L 0.00140625 14.17325 " transform="matrix(1,0,0,-1,71.065,144.767)"/>
<path style="fill:none;stroke-width:0.3985;stroke-linecap:butt;stroke-linejoin:miter;stroke:rgb(0%,0%,0%);stroke-opacity:1;stroke-miterlimit:10;" d="M 0.00140625 0.001375 L -7.088437 12.274812 " transform="matrix(1,0,0,-1,71.065,144.767)"/>
<path style="fill:none;stroke-width:0.3985;stroke-linecap:butt;stroke-linejoin:miter;stroke:rgb(0%,0%,0%);stroke-opacity:1;stroke-miterlimit:10;" d="M 56.692813 0.001375 L -35.432187 12.274812 " transform="matrix(1,0,0,-1,71.065,144.767)"/>
<path style="fill:none;stroke-width:0.3985;stroke-linecap:butt;stroke-linejoin:miter;stroke:rgb(0%,0%,0%);stroke-opacity:1;stroke-miterlimit:10;" d="M 0.00140625 0.001375 L -12.275937 7.087312 " transform="matrix(1,0,0,-1,71.065,144.767)"/>
<path style="fill:none;stroke-width:0.3985;stroke-linecap:butt;stroke-linejoin:miter;stroke:rgb(0%,0%,0%);stroke-opacity:1;stroke-miterlimit:10;" d="M 56.692813 0.001375 L -61.373594 7.087312 " transform="matrix(1,0,0,-1,71.065,144.767)"/>
<path style="fill:none;stroke-width:0.3985;stroke-linecap:butt;stroke-linejoin:miter;stroke:rgb(0%,0%,0%);stroke-opacity:1;stroke-miterlimit:10;" d="M 0.00140625 0.001375 L -14.174375 0.001375 " transform="matrix(1,0,0,-1,71.065,144.767)"/>
<path style="fill:none;stroke-width:0.3985;stroke-linecap:butt;stroke-linejoin:miter;stroke:rgb(0%,0%,0%);stroke-opacity:1;stroke-miterlimit:10;" d="M 56.692813 0.001375 L -70.865781 0.001375 " transform="matrix(1,0,0,-1,71.065,144.767)"/>
<path style="fill:none;stroke-width:0.3985;stroke-linecap:butt;stroke-linejoin:miter;stroke:rgb(0%,0%,0%);stroke-opacity:1;stroke-miterlimit:10;" d="M 0.00140625 0.001375 L -12.275937 -7.088469 " transform="matrix(1,0,0,-1,71.065,144.767)"/>
<path style="fill:none;stroke-width:0.3985;stroke-linecap:butt;stroke-linejoin:miter;stroke:rgb(0%,0%,0%);stroke-opacity:1;stroke-miterlimit:10;" d="M 56.692813 0.001375 L -61.373594 -7.088469 " transform="matrix(1,0,0,-1,71.065,144.767)"/>
<g clip-path="url(#clip6)" clip-rule="nonzero">
<path style="fill:none;stroke-width:0.3985;stroke-linecap:butt;stroke-linejoin:miter;stroke:rgb(0%,0%,0%);stroke-opacity:1;stroke-miterlimit:10;" d="M 0.00140625 0.001375 L -7.088437 -12.275969 " transform="matrix(1,0,0,-1,71.065,144.767)"/>
</g>
<g clip-path="url(#clip7)" clip-rule="nonzero">
<path style="fill:none;stroke-width:0.3985;stroke-linecap:butt;stroke-linejoin:miter;stroke:rgb(0%,0%,0%);stroke-opacity:1;stroke-miterlimit:10;" d="M 56.692813 0.001375 L -35.432187 -12.275969 " transform="matrix(1,0,0,-1,71.065,144.767)"/>
</g>
<g clip-path="url(#clip8)" clip-rule="nonzero">
<path style="fill:none;stroke-width:0.3985;stroke-linecap:butt;stroke-linejoin:miter;stroke:rgb(0%,0%,0%);stroke-opacity:1;stroke-miterlimit:10;" d="M 0.00140625 0.001375 L 0.00140625 -14.174406 " transform="matrix(1,0,0,-1,71.065,144.767)"/>
</g>
<g clip-path="url(#clip9)" clip-rule="nonzero">
<path style="fill:none;stroke-width:0.3985;stroke-linecap:butt;stroke-linejoin:miter;stroke:rgb(0%,0%,0%);stroke-opacity:1;stroke-miterlimit:10;" d="M 56.692813 0.001375 L 0.00140625 -14.174406 " transform="matrix(1,0,0,-1,71.065,144.767)"/>
</g>
<g clip-path="url(#clip10)" clip-rule="nonzero">
<path style="fill:none;stroke-width:0.3985;stroke-linecap:butt;stroke-linejoin:miter;stroke:rgb(0%,0%,0%);stroke-opacity:1;stroke-miterlimit:10;" d="M 0.00140625 0.001375 L 7.087344 -12.275969 " transform="matrix(1,0,0,-1,71.065,144.767)"/>
</g>
<g clip-path="url(#clip11)" clip-rule="nonzero">
<path style="fill:none;stroke-width:0.3985;stroke-linecap:butt;stroke-linejoin:miter;stroke:rgb(0%,0%,0%);stroke-opacity:1;stroke-miterlimit:10;" d="M 56.692813 0.001375 L 35.435 -12.275969 " transform="matrix(1,0,0,-1,71.065,144.767)"/>
</g>
<path style="fill:none;stroke-width:0.3985;stroke-linecap:butt;stroke-linejoin:miter;stroke:rgb(0%,0%,0%);stroke-opacity:1;stroke-miterlimit:10;" d="M 0.00140625 0.001375 L 12.274844 -7.088469 " transform="matrix(1,0,0,-1,71.065,144.767)"/>
<path style="fill:none;stroke-width:0.3985;stroke-linecap:butt;stroke-linejoin:miter;stroke:rgb(0%,0%,0%);stroke-opacity:1;stroke-miterlimit:10;" d="M 56.692813 0.001375 L 61.3725 -7.088469 " transform="matrix(1,0,0,-1,71.065,144.767)"/>
<path style="fill:none;stroke-width:0.3985;stroke-linecap:butt;stroke-linejoin:miter;stroke:rgb(0%,0%,0%);stroke-opacity:1;stroke-miterlimit:10;" d="M 0.00140625 0.001375 L 14.173281 0.001375 " transform="matrix(1,0,0,-1,71.065,144.767)"/>
<g clip-path="url(#clip12)" clip-rule="nonzero">
<path style="fill:none;stroke-width:0.3985;stroke-linecap:butt;stroke-linejoin:miter;stroke:rgb(0%,0%,0%);stroke-opacity:1;stroke-miterlimit:10;" d="M 56.692813 0.001375 L 70.868594 0.001375 " transform="matrix(1,0,0,-1,71.065,144.767)"/>
</g>
<path style="fill-rule:nonzero;fill:rgb(50%,50%,50%);fill-opacity:1;stroke-width:0.3985;stroke-linecap:butt;stroke-linejoin:miter;stroke:rgb(0%,0%,0%);stroke-opacity:1;stroke-miterlimit:10;" d="M 0.00140625 0.001375 L 5.669375 2.833406 L 5.669375 -2.834563 " transform="matrix(1,0,0,-1,71.065,144.767)"/>
<path style="fill-rule:nonzero;fill:rgb(50%,50%,50%);fill-opacity:1;stroke-width:0.3985;stroke-linecap:butt;stroke-linejoin:miter;stroke:rgb(0%,0%,0%);stroke-opacity:1;stroke-miterlimit:10;" d="M 56.692813 0.001375 L 51.024844 2.833406 L 51.024844 -2.834563 " transform="matrix(1,0,0,-1,71.065,144.767)"/>
<path style="fill-rule:nonzero;fill:rgb(100%,97.44873%,50%);fill-opacity:1;stroke-width:0.3985;stroke-linecap:butt;stroke-linejoin:miter;stroke:rgb(0%,0%,0%);stroke-opacity:1;stroke-miterlimit:10;" d="M 28.345156 28.345125 L 28.345156 85.040437 L 42.520938 99.212312 L 14.173281 99.212312 Z M 28.345156 28.345125 " transform="matrix(1,0,0,-1,71.065,144.767)"/>
<path style="fill-rule:nonzero;fill:rgb(100%,97.44873%,50%);fill-opacity:1;stroke-width:0.3985;stroke-linecap:butt;stroke-linejoin:miter;stroke:rgb(0%,0%,0%);stroke-opacity:1;stroke-miterlimit:10;" d="M 28.345156 56.692781 L 42.520938 70.868562 L 42.520938 56.692781 Z M 28.345156 56.692781 " transform="matrix(1,0,0,-1,71.065,144.767)"/>
<path style="fill-rule:nonzero;fill:rgb(100%,97.44873%,50%);fill-opacity:1;stroke-width:0.3985;stroke-linecap:butt;stroke-linejoin:miter;stroke:rgb(0%,0%,0%);stroke-opacity:1;stroke-miterlimit:10;" d="M 28.345156 85.040437 L 42.520938 99.212312 L 42.520938 85.040437 Z M 28.345156 85.040437 " transform="matrix(1,0,0,-1,71.065,144.767)"/>
<path style="fill-rule:nonzero;fill:rgb(100%,97.44873%,50%);fill-opacity:1;stroke-width:0.3985;stroke-linecap:butt;stroke-linejoin:miter;stroke:rgb(0%,0%,0%);stroke-opacity:1;stroke-miterlimit:10;" d="M 28.345156 85.040437 L 42.520938 99.212312 L 56.692813 99.212312 L 42.520938 85.040437 Z M 28.345156 85.040437 " transform="matrix(1,0,0,-1,71.065,144.767)"/>
<path style="fill-rule:nonzero;fill:rgb(100%,97.44873%,50%);fill-opacity:1;stroke-width:0.3985;stroke-linecap:butt;stroke-linejoin:miter;stroke:rgb(0%,0%,0%);stroke-opacity:1;stroke-miterlimit:10;" d="M 42.520938 99.212312 L 42.520938 113.388094 L 36.849063 127.559969 L 48.188906 127.559969 Z M 42.520938 99.212312 " transform="matrix(1,0,0,-1,71.065,144.767)"/>
<path style="fill-rule:nonzero;fill:rgb(100%,97.44873%,50%);fill-opacity:1;stroke-width:0.3985;stroke-linecap:butt;stroke-linejoin:miter;stroke:rgb(0%,0%,0%);stroke-opacity:1;stroke-miterlimit:10;" d="M 36.849063 127.559969 L 48.188906 127.559969 L 51.024844 141.73575 L 34.017031 141.73575 Z M 36.849063 127.559969 " transform="matrix(1,0,0,-1,71.065,144.767)"/>
<path style="fill-rule:nonzero;fill:rgb(0%,0%,0%);fill-opacity:1;stroke-width:0.3985;stroke-linecap:butt;stroke-linejoin:miter;stroke:rgb(0%,0%,0%);stroke-opacity:1;stroke-miterlimit:10;" d="M 36.849063 141.73575 C 36.849063 143.29825 35.583438 144.567781 34.017031 144.567781 C 32.450625 144.567781 31.181094 143.29825 31.181094 141.73575 C 31.181094 140.169344 32.450625 138.899812 34.017031 138.899812 C 35.583438 138.899812 36.849063 140.169344 36.849063 141.73575 Z M 36.849063 141.73575 " transform="matrix(1,0,0,-1,71.065,144.767)"/>
<path style="fill-rule:nonzero;fill:rgb(0%,0%,0%);fill-opacity:1;stroke-width:0.3985;stroke-linecap:butt;stroke-linejoin:miter;stroke:rgb(0%,0%,0%);stroke-opacity:1;stroke-miterlimit:10;" d="M 53.860781 141.73575 C 53.860781 143.29825 52.59125 144.567781 51.024844 144.567781 C 49.458438 144.567781 48.188906 143.29825 48.188906 141.73575 C 48.188906 140.169344 49.458438 138.899812 51.024844 138.899812 C 52.59125 138.899812 53.860781 140.169344 53.860781 141.73575 Z M 53.860781 141.73575 " transform="matrix(1,0,0,-1,71.065,144.767)"/>
<path style="fill-rule:nonzero;fill:rgb(0%,0%,0%);fill-opacity:1;stroke-width:0.3985;stroke-linecap:butt;stroke-linejoin:miter;stroke:rgb(0%,0%,0%);stroke-opacity:1;stroke-miterlimit:10;" d="M 45.356875 136.063875 C 45.356875 137.630281 44.087344 138.899812 42.520938 138.899812 C 40.954531 138.899812 39.685 137.630281 39.685 136.063875 C 39.685 134.497469 40.954531 133.231844 42.520938 133.231844 C 44.087344 133.231844 45.356875 134.497469 45.356875 136.063875 Z M 45.356875 136.063875 " transform="matrix(1,0,0,-1,71.065,144.767)"/>
</g>
</svg>
